slendr crash course
…
A tree sequence can be saved to disk with ts_save().

What can we do with it?

Conversion to other file formats

If you have a tree-sequence object ts, you can do…

ts_vcf(ts, path = "path/to/a/file.vcf.gz")

ts_eigenstrat(ts, prefix = "path/to/eigenstrat/prefix")

ts_genotypes(ts)

# A tibble: 1,265 × 5
     pos pop1_1_chr1 pop1_1_chr2 pop2_1_chr1 pop2_1_chr2
   <int>       <int>       <int>       <int>       <int>
 1   518           1           1           0           0
 2 11729           1           1           0           0
 3 22621           1           1           0           0
 4 30331           0           0           1           1
 5 31199           0           0           1           1
 6 62427           0           0           1           1
 7 65533           0           0           1           1
 8 70350           0           0           1           1
 9 75013           1           1           0           0
10 86857           1           1           1           1
# … with 1,255 more rows
…
Extracting sample information

If we have a tree sequence ts, then we can get samples stored in it via ts_samples():

ts_samples(ts)

# A tibble: 4,700 × 3
   name     time pop  
   <chr>   <dbl> <chr>
 1 pop1_1      0 pop1 
 2 pop1_2      0 pop1 
 3 pop1_3      0 pop1 
 4 pop1_4      0 pop1 
 5 pop1_5      0 pop1 
 6 pop1_6      0 pop1 
 7 pop1_7      0 pop1 
 8 pop1_8      0 pop1 
 9 pop1_9      0 pop1 
10 pop1_10     0 pop1 
# … with 4,690 more rows
…
Simulate a tree sequence using msprime() from your model (perhaps 50Mb?), add mutations with ts_mutate(). Inspect its contents using ts_samples().

Compute diversity (\(\pi\)) in each population (ts_diversity()). Do your results fit \(N_e\) in your model?

Compute ts_divergence() (genetic divergence) or ts_fst() (\(F_{ST}\)) between pairs of populations. Do the results match the order of splits in your model?

Hint: See manual page of each tree-sequence statistic function for notes on how to use it.

Exercise #2 — popgen statistics

An R trick for using names of samples in ts_*() functions:

ts_samples(ts)

# A tibble: 4,700 × 3
   name     time pop  
   <chr>   <dbl> <chr>
 1 pop1_1      0 pop1 
 2 pop1_2      0 pop1 
 3 pop1_3      0 pop1 
 4 pop1_4      0 pop1 
 5 pop1_5      0 pop1 
 6 pop1_6      0 pop1 
 7 pop1_7      0 pop1 
 8 pop1_8      0 pop1 
 9 pop1_9      0 pop1 
10 pop1_10     0 pop1 
# … with 4,690 more rows
…
